{
  "type": "service_account",
  "project_id": "biz-lang",
  "private_key_id": "4f59fc64d99d3fb0129cb69522bbf872fef19a92",
  "private_key": "-----BEGIN PRIVATE KEY-----\nMIIEvAIBADANBgkqhkiG9w0BAQEFAASCBKYwggSiAgEAAoIBAQCNa9jp/3Gwj2xp\nguEGaouqMJkmKz6xsCcDklANGr1HdWVMN1xXn2F8KHzAFXDRMs6577CFQaGO/cVd\nTEP3TAUxUe5PHt99lMDAzImomQSVl3mCsDg7Q560xThh7MfgjbK6IjeHYq+2Zylh\n7sjcwdUl/ScmoOLRD1I0lQq6iGUXS2oThFAN4USmUwPQcwIf0V17yD2YlS1uGvKC\nhjhM5WB1aszfiNP0aTJc+EgrH+LZNk6TsAehlhSuGu+dH6vBjZHE5GkWcWyJy/YK\nV/eb0+LZ4o980mfFDjCGAH7tpaLV3uwewjkLBHmrsDU++aaF3OsiFUtsVMW4X4b/\nx6BhKIPtAgMBAAECggEAO7HT2IYWZ8hKo0j3El3EAX1NEBL9/kQUW8oVV0q7rd+s\neB0AMg5ZOG7gpbYHLo7rOwolcUJQX0rYVfb803S31mc2mBg4j0pMiLVtwAiDKl/L\njzIyMjXrVnPPRmqLvkohsLcDyHaMJArsqWWBTMnW3pe6wG/1/fghI4fsBOvQ/CEc\n/A80J/wLdROkUcGIv8rjHcvdixdFcrTjIAQb4Bi5Clgv4l9gdXTAmnXUvcBz+0g3\noogTFO7qy2NK7PCVFZ3Ii/rST6Mvf885SnJByR1YNHGDFhYBnFjwJzapN//XR5qS\nka+/kHbMPE0T5fya8CqMbhoxJr0RfzdKjOcVNG1E8wKBgQDD+s2xfJ4oB0kH2ZoA\nUw+x+g/pOBQPX/y2GWBbRi7aa3YZTKjVOVSEhWyb/ZrIBDwNB4mJOkQNidCtUDHc\nyzZnNNt1tYzLXso9ENTsL7xoE1kec3kWCr3D65YbPL92btFNJRdyXX+dcTtDes1j\n7m/ifRsvMvxFl9Wgjk1D58zpwwKBgQC4u441oj8DRfHLiLUDZdOssbUKj/FEYr5V\nPYR1ohoQUTXJsL6lGh4+GznRhZgBDETP7tRHkFuMWL736zOE5my6C2lVcupY6Yln\nommBgDC7IoshUQCYEcA0Q1PF6YiSEEwzNr2z9aDDmjN/bVGbChau4hgpFnqdCx9A\n+Cyj0XdQjwKBgBFCqZMUMqm72obCd3nH1v4J1BTqR3oDLjKrkXz4dW/vPvuDcOs2\nnWb+iU5Dy7oKBW/wVgCsDQpUNPjOs1WK4EO+uAVp8/iFZLJ0JQyYN7PC4Hp6GRQD\n5iq3OQU1GHfJ0s1EkwgTjAXFzz5mNmiyu0/rTNWfW/CVKs91OQDeDYIZAoGANh91\nRc94SLw4YFp4NjuiLcmO8j5EALYxb4Xrhg9tNXSlnqby5Cpny+hsIy/R3hS7IHSn\nqyPnPpJNuRMm7/wWxNdNECTv9gbOJBfYc4GcRWeUfblexC8HMgi7xZNrWOf/e03B\nfLUtWcGW7vGXZCYriSdizr7wQ4ybpoxPf9uB6o8CgYBJ2akMuC8IyWMQ5oQDuts/\nkWyErllgp1hIVWR+h2iTxL3oGukrq932BYxHfxIwyV/sudBl061psi90FBO4/ZnP\nhW+TbDvNkNdt/hhGdaO6sjAY/pQvF4alI3p9YTFFjZlWLgbWeNJCqh4wFxJe9p5/\nD2Jc/EhcEw8At1hXuRRb9Q==\n-----END PRIVATE KEY-----\n",
  "client_email": "firebase-adminsdk-f2pp2@biz-lang.iam.gserviceaccount.com",
  "client_id": "109052108916837273738",
  "auth_uri": "https://accounts.google.com/o/oauth2/auth",
  "token_uri": "https://oauth2.googleapis.com/token",
  "auth_provider_x509_cert_url": "https://www.googleapis.com/oauth2/v1/certs",
  "client_x509_cert_url": "https://www.googleapis.com/robot/v1/metadata/x509/firebase-adminsdk-f2pp2%40biz-lang.iam.gserviceaccount.com"
}
